# 678eb030ce
0W
0W_GH_FT
0W_GH_LN
2W
4W
8W
8W_GH_FT
8W_GH_LN
After_Vern_Growth
Anthocyanin_10
Anthocyanin_16
Anthocyanin_22
Aphid_number
As
As_CFU2
As2
As2_CFU2
As75
At1
At1_CFU2
At2
At2_CFU2
avrB
avrPphB
avrRpm1
avrRpt2
B11
Bacterial_titer
Bs
Bs_CFU2
Ca43
Cd114
Chlorosis_10
Chlorosis_16
Chlorosis_22
Co59
Cu65
DSDS50
DW
Emco5
Emoy*
Emwa1
Fe56
FLC
FRI
FT_Diameter_Field
FT_Duration_GH
FT_Field
FT_GH
FT10
FT16
FT22
FW
Germ_10
Germ_16
Germ_22
Germ_in_dark
Hiks1
Hypocotyl_length
K39
LC_Duration_GH
LD
LDV
Leaf_roll_10
Leaf_roll_16
Leaf_roll_22
Leaf_serr_10
Leaf_serr_16
Leaf_serr_22
LES
LFS_GH
Li7
LN10
LN16
LN22
LY
Mg25
Mn55
Mo98
MT_GH
Na23
Ni60
Noco2
P31
Rosette_Erect_22
RP_GH
S34
SD
SDV
Se82
Secondary_Dormancy
Seed_bank_133-91
Seed_Dormancy
Seedling_Growth
Silique_16
Silique_22
Storage_28_days
Storage_56_days
Storage_7_days
Trichome_avg_C
Trichome_avg_JA
Vern_Growth
Width_10
Width_16
Width_22
YEL
Zn66
